Project1
…
## # A tibble: 6 x 5
##   Location      Population SNAPavg  Timepoint PropBreastfed
##   <chr>              <dbl> <chr>    <chr>     <chr>        
## 1 United States  318498500 39651687 Any_time  0.841        
## 2 United States  318498500 39651687 6_months  0.583        
## 3 United States  318498500 39651687 12_months 0.353        
## 4 Alabama          4752600 766681   Any_time  0.69         
## 5 Alabama          4752600 766681   6_months  0.385        
## 6 Alabama          4752600 766681   12_months 0.216

I also needed to change the values of average monthly SNAP participants and the proportion breastfed from characters to integers.

fullset %>% mutate(SNAPavg = as.numeric(SNAPavg), PropBreastfed = as.numeric(PropBreastfed))

## # A tibble: 162 x 5
##    Location      Population  SNAPavg Timepoint PropBreastfed
##    <chr>              <dbl>    <dbl> <chr>             <dbl>
##  1 United States  318498500 39651687 Any_time          0.841
##  2 United States  318498500 39651687 6_months          0.583
##  3 United States  318498500 39651687 12_months         0.353
##  4 Alabama          4752600   766681 Any_time          0.69 
##  5 Alabama          4752600   766681 6_months          0.385
##  6 Alabama          4752600   766681 12_months         0.216
##  7 Alaska            709100    91995 Any_time          0.919
##  8 Alaska            709100    91995 6_months          0.674
##  9 Alaska            709100    91995 12_months         0.439
## 10 Arizona          7004300   845733 Any_time          0.899
## # … with 152 more rows
…
## # A tibble: 3 x 5
##   Timepoint median   max   min  mean
##   <chr>      <dbl> <dbl> <dbl> <dbl>
## 1 12_months  0.36  0.55  0.203 0.359
## 2 6_months   0.581 0.791 0.385 0.585
## 3 Any_time   0.842 0.953 0.662 0.836

This revealed that the greatest difference between the minimum and maximum states occurred at the six month timepoint, so I chose to explore that further.

I filtered the dataset so that it only showed the six month timepoint, and returned only the rows where the proportion of babies that were breastfed was greater than 0.581, which was the median.

fullset %>% select(Location, Timepoint, PropBreastfed) %>% filter(Timepoint == 
    "6_months", PropBreastfed > 0.581) %>% arrange(desc(PropBreastfed))

## # A tibble: 26 x 3
##    Location     Timepoint PropBreastfed
##    <chr>        <chr>             <dbl>
##  1 Minnesota    6_months          0.791
##  2 Washington   6_months          0.746
##  3 Hawaii       6_months          0.745
##  4 Virginia     6_months          0.74 
##  5 Oregon       6_months          0.734
##  6 Vermont      6_months          0.704
##  7 South Dakota 6_months          0.701
##  8 Colorado     6_months          0.692
##  9 Alaska       6_months          0.674
## 10 California   6_months          0.671
## # … with 16 more rows

This returned 26 rows, or half of the dataset. In looking at this, I was looking for signs of correlation between the states with the lowest proportion of SNAP recipients and the highest proportion of breastfed babies. Earlier, I found that Wyoming, Utah, and New Hampshire have the lowest proportion of people receiving SNAP benefits. These states were all represented in this half of the dataset, although they were not in the top 10 states with the highest proprtion of breastfed babies at six months.

I next did the same filtering process, but this time I returned only the rows where the proprtion of breastfed babies was less than 0.581.

fullset %>% select(Location, Timepoint, PropBreastfed) %>% filter(Timepoint == 
    "6_months", PropBreastfed < 0.581) %>% arrange(PropBreastfed)

## # A tibble: 26 x 3
##    Location      Timepoint PropBreastfed
##    <chr>         <chr>             <dbl>
##  1 Alabama       6_months          0.385
##  2 Mississippi   6_months          0.386
##  3 Louisiana     6_months          0.41 
##  4 West Virginia 6_months          0.426
##  5 Arkansas      6_months          0.431
##  6 Kentucky      6_months          0.445
##  7 Indiana       6_months          0.47 
##  8 Guam          6_months          0.475
##  9 Tennessee     6_months          0.487
## 10 Missouri      6_months          0.502
## # … with 16 more rows
…
